<?xml version="1.0"?>
<svg xmlns="http://www.w3.org/2000/svg" width="32" height="32">
    <text style="fill:darkblue; font-weight: bolder; font-family: Times; font-size:40; font-weigth: bolde" x="0" y="32">T</text>
</svg>
